{
  "tests" : [ {
    "name" : "z1Tablet.gspec",
    "startedAt" : 1636815206207,
    "endedAt" : 1636815294020,
    "failed" : false,
    "statistic" : {
      "passed" : 27,
      "errors" : 0,
      "warnings" : 0,
      "total" : 27
    },
    "testId" : "1-z1tablet.gspec",
    "duration" : 87813,
    "failed" : false
  } ]
}